%YAML 1.1
%TAG !u! tag:unity3d.com,2011:
--- !u!114 &11400000
MonoBehaviour:
  m_ObjectHideFlags: 0
  m_CorrespondingSourceObject: {fileID: 0}
  m_PrefabInstance: {fileID: 0}
  m_PrefabAsset: {fileID: 0}
  m_GameObject: {fileID: 0}
  m_Enabled: 1
  m_EditorHideFlags: 0
  m_Script: {fileID: 11500000, guid: 5bf7c34a0dc4e6348bea04faa70406ee, type: 3}
  m_Name: Charizard
  m_EditorClassIdentifier: 
  m_Labels:
  - m_Name: Male
    m_Hash: -172011625
    m_CategoryList:
    - m_Name: IdleDown
      m_Hash: -1620788900
      m_Sprite: {fileID: 21300000, guid: ba05c9aa075c90ffdb52e7b6a3857ba7, type: 3}
    - m_Name: IdleUp
      m_Hash: 1560457943
      m_Sprite: {fileID: 21300000, guid: c75c56d3b01b0ce91a77e8a5d6bd9d16, type: 3}
    - m_Name: IdleLeft
      m_Hash: -100872689
      m_Sprite: {fileID: 21300000, guid: fb15a0fa45da5c1dc9063621840f9cc0, type: 3}
    - m_Name: WalkingDown
      m_Hash: -1447365632
      m_Sprite: {fileID: 21300000, guid: cd57e86c53aafed95b258a94c1a602b4, type: 3}
    - m_Name: WalkingUp
      m_Hash: 1473565112
      m_Sprite: {fileID: 21300000, guid: 0990df9cd7b3fdfa392d6c5038310596, type: 3}
    - m_Name: WalkingLeft1
      m_Hash: 1903283578
      m_Sprite: {fileID: 21300000, guid: 65582f4a1377501bba5e4e3a12c6a6fc, type: 3}
    - m_Name: WalkingLeft2
      m_Hash: -394748736
      m_Sprite: {fileID: 21300000, guid: 65582f4a1377501bba5e4e3a12c6a6fc, type: 3}
  - m_Name: Female
    m_Hash: 1306038106
    m_CategoryList:
    - m_Name: IdleDown
      m_Hash: -1620788900
      m_Sprite: {fileID: 21300000, guid: ba05c9aa075c90ffdb52e7b6a3857ba7, type: 3}
    - m_Name: IdleUp
      m_Hash: 1560457943
      m_Sprite: {fileID: 21300000, guid: c75c56d3b01b0ce91a77e8a5d6bd9d16, type: 3}
    - m_Name: IdleLeft
      m_Hash: -100872689
      m_Sprite: {fileID: 21300000, guid: fb15a0fa45da5c1dc9063621840f9cc0, type: 3}
    - m_Name: WalkingDown
      m_Hash: -1447365632
      m_Sprite: {fileID: 21300000, guid: cd57e86c53aafed95b258a94c1a602b4, type: 3}
    - m_Name: WalkingUp
      m_Hash: 1473565112
      m_Sprite: {fileID: 21300000, guid: 0990df9cd7b3fdfa392d6c5038310596, type: 3}
    - m_Name: WalkingLeft1
      m_Hash: 1903283578
      m_Sprite: {fileID: 21300000, guid: 65582f4a1377501bba5e4e3a12c6a6fc, type: 3}
    - m_Name: WalkingLeft2
      m_Hash: -394748736
      m_Sprite: {fileID: 21300000, guid: 65582f4a1377501bba5e4e3a12c6a6fc, type: 3}
  - m_Name: MaleShiny
    m_Hash: -717554358
    m_CategoryList:
    - m_Name: IdleDown
      m_Hash: -1620788900
      m_Sprite: {fileID: 21300000, guid: 6ceeae6061117ad62bbb4fae067a7ffa, type: 3}
    - m_Name: IdleUp
      m_Hash: 1560457943
      m_Sprite: {fileID: 21300000, guid: 39c852fa042c1427db039ae575fb7fb7, type: 3}
    - m_Name: IdleLeft
      m_Hash: -100872689
      m_Sprite: {fileID: 21300000, guid: 5f44016bd5e9fac19a6b4af6afbb6fc7, type: 3}
    - m_Name: WalkingDown
      m_Hash: -1447365632
      m_Sprite: {fileID: 21300000, guid: 46b791b5289a45212af8d3eec5b9d4a3, type: 3}
    - m_Name: WalkingUp
      m_Hash: 1473565112
      m_Sprite: {fileID: 21300000, guid: ec54b5491fd9e05eb8b87027b3eaa430, type: 3}
    - m_Name: WalkingLeft1
      m_Hash: 1903283578
      m_Sprite: {fileID: 21300000, guid: 9bc5343f54236ed79b73eaa5114b439b, type: 3}
    - m_Name: WalkingLeft2
      m_Hash: -394748736
      m_Sprite: {fileID: 21300000, guid: 9bc5343f54236ed79b73eaa5114b439b, type: 3}
  - m_Name: FemaleShiny
    m_Hash: -747190733
    m_CategoryList:
    - m_Name: IdleDown
      m_Hash: -1620788900
      m_Sprite: {fileID: 21300000, guid: 6ceeae6061117ad62bbb4fae067a7ffa, type: 3}
    - m_Name: IdleUp
      m_Hash: 1560457943
      m_Sprite: {fileID: 21300000, guid: 39c852fa042c1427db039ae575fb7fb7, type: 3}
    - m_Name: IdleLeft
      m_Hash: -100872689
      m_Sprite: {fileID: 21300000, guid: 5f44016bd5e9fac19a6b4af6afbb6fc7, type: 3}
    - m_Name: WalkingDown
      m_Hash: -1447365632
      m_Sprite: {fileID: 21300000, guid: 46b791b5289a45212af8d3eec5b9d4a3, type: 3}
    - m_Name: WalkingUp
      m_Hash: 1473565112
      m_Sprite: {fileID: 21300000, guid: ec54b5491fd9e05eb8b87027b3eaa430, type: 3}
    - m_Name: WalkingLeft1
      m_Hash: 1903283578
      m_Sprite: {fileID: 21300000, guid: 9bc5343f54236ed79b73eaa5114b439b, type: 3}
    - m_Name: WalkingLeft2
      m_Hash: -394748736
      m_Sprite: {fileID: 21300000, guid: 9bc5343f54236ed79b73eaa5114b439b, type: 3}
