%YAML 1.1
%TAG !u! tag:unity3d.com,2011:
--- !u!114 &11400000
MonoBehaviour:
  m_ObjectHideFlags: 0
  m_CorrespondingSourceObject: {fileID: 0}
  m_PrefabInstance: {fileID: 0}
  m_PrefabAsset: {fileID: 0}
  m_GameObject: {fileID: 0}
  m_Enabled: 1
  m_EditorHideFlags: 0
  m_Script: {fileID: 11500000, guid: 5bf7c34a0dc4e6348bea04faa70406ee, type: 3}
  m_Name: Donphan
  m_EditorClassIdentifier: 
  m_Labels:
  - m_Name: Male
    m_Hash: -172011625
    m_CategoryList:
    - m_Name: IdleDown
      m_Hash: -1620788900
      m_Sprite: {fileID: 21300000, guid: b82bfffb24a1060618e68c5a9f0c62a0, type: 3}
    - m_Name: IdleUp
      m_Hash: 1560457943
      m_Sprite: {fileID: 21300000, guid: a0a61909fe5d1fb92a38312286122ccc, type: 3}
    - m_Name: IdleLeft
      m_Hash: -100872689
      m_Sprite: {fileID: 21300000, guid: 6253ba0f9bb5823398aafcfff933210d, type: 3}
    - m_Name: WalkingDown
      m_Hash: -1447365632
      m_Sprite: {fileID: 21300000, guid: adf66376380b4303982a4cd00d1ce9c3, type: 3}
    - m_Name: WalkingUp
      m_Hash: 1473565112
      m_Sprite: {fileID: 21300000, guid: f3fd978fdcb743718994f4799108fc16, type: 3}
    - m_Name: WalkingLeft1
      m_Hash: 1903283578
      m_Sprite: {fileID: 21300000, guid: ae131841e246679a1a9d1b4124ce6012, type: 3}
    - m_Name: WalkingLeft2
      m_Hash: -394748736
      m_Sprite: {fileID: 21300000, guid: ae131841e246679a1a9d1b4124ce6012, type: 3}
  - m_Name: Female
    m_Hash: 1306038106
    m_CategoryList:
    - m_Name: IdleDown
      m_Hash: -1620788900
      m_Sprite: {fileID: 21300000, guid: b82bfffb24a1060618e68c5a9f0c62a0, type: 3}
    - m_Name: IdleUp
      m_Hash: 1560457943
      m_Sprite: {fileID: 21300000, guid: a0a61909fe5d1fb92a38312286122ccc, type: 3}
    - m_Name: IdleLeft
      m_Hash: -100872689
      m_Sprite: {fileID: 21300000, guid: 6253ba0f9bb5823398aafcfff933210d, type: 3}
    - m_Name: WalkingDown
      m_Hash: -1447365632
      m_Sprite: {fileID: 21300000, guid: adf66376380b4303982a4cd00d1ce9c3, type: 3}
    - m_Name: WalkingUp
      m_Hash: 1473565112
      m_Sprite: {fileID: 21300000, guid: f3fd978fdcb743718994f4799108fc16, type: 3}
    - m_Name: WalkingLeft1
      m_Hash: 1903283578
      m_Sprite: {fileID: 21300000, guid: ae131841e246679a1a9d1b4124ce6012, type: 3}
    - m_Name: WalkingLeft2
      m_Hash: -394748736
      m_Sprite: {fileID: 21300000, guid: ae131841e246679a1a9d1b4124ce6012, type: 3}
  - m_Name: MaleShiny
    m_Hash: -717554358
    m_CategoryList:
    - m_Name: IdleDown
      m_Hash: -1620788900
      m_Sprite: {fileID: 21300000, guid: a1cfe8d7964e9bd719fb18fed2c5c8dc, type: 3}
    - m_Name: IdleUp
      m_Hash: 1560457943
      m_Sprite: {fileID: 21300000, guid: 9b589a0c874f25551baa5d25a66830e5, type: 3}
    - m_Name: IdleLeft
      m_Hash: -100872689
      m_Sprite: {fileID: 21300000, guid: e6d816720450f6c88887338ba3a4e60d, type: 3}
    - m_Name: WalkingDown
      m_Hash: -1447365632
      m_Sprite: {fileID: 21300000, guid: 05bd5eb7979aa94429dbd52f973fc14b, type: 3}
    - m_Name: WalkingUp
      m_Hash: 1473565112
      m_Sprite: {fileID: 21300000, guid: 9d0aaa4c763d166f796325bb057c0c86, type: 3}
    - m_Name: WalkingLeft1
      m_Hash: 1903283578
      m_Sprite: {fileID: 21300000, guid: bfcfa1477c4b447d5be5334a20492888, type: 3}
    - m_Name: WalkingLeft2
      m_Hash: -394748736
      m_Sprite: {fileID: 21300000, guid: bfcfa1477c4b447d5be5334a20492888, type: 3}
  - m_Name: FemaleShiny
    m_Hash: -747190733
    m_CategoryList:
    - m_Name: IdleDown
      m_Hash: -1620788900
      m_Sprite: {fileID: 21300000, guid: a1cfe8d7964e9bd719fb18fed2c5c8dc, type: 3}
    - m_Name: IdleUp
      m_Hash: 1560457943
      m_Sprite: {fileID: 21300000, guid: 9b589a0c874f25551baa5d25a66830e5, type: 3}
    - m_Name: IdleLeft
      m_Hash: -100872689
      m_Sprite: {fileID: 21300000, guid: e6d816720450f6c88887338ba3a4e60d, type: 3}
    - m_Name: WalkingDown
      m_Hash: -1447365632
      m_Sprite: {fileID: 21300000, guid: 05bd5eb7979aa94429dbd52f973fc14b, type: 3}
    - m_Name: WalkingUp
      m_Hash: 1473565112
      m_Sprite: {fileID: 21300000, guid: 9d0aaa4c763d166f796325bb057c0c86, type: 3}
    - m_Name: WalkingLeft1
      m_Hash: 1903283578
      m_Sprite: {fileID: 21300000, guid: bfcfa1477c4b447d5be5334a20492888, type: 3}
    - m_Name: WalkingLeft2
      m_Hash: -394748736
      m_Sprite: {fileID: 21300000, guid: bfcfa1477c4b447d5be5334a20492888, type: 3}
