%YAML 1.1
%TAG !u! tag:unity3d.com,2011:
--- !u!114 &11400000
MonoBehaviour:
  m_ObjectHideFlags: 0
  m_CorrespondingSourceObject: {fileID: 0}
  m_PrefabInstance: {fileID: 0}
  m_PrefabAsset: {fileID: 0}
  m_GameObject: {fileID: 0}
  m_Enabled: 1
  m_EditorHideFlags: 0
  m_Script: {fileID: 11500000, guid: 5bf7c34a0dc4e6348bea04faa70406ee, type: 3}
  m_Name: Kingdra
  m_EditorClassIdentifier: 
  m_Labels:
  - m_Name: Male
    m_Hash: -172011625
    m_CategoryList:
    - m_Name: IdleDown
      m_Hash: -1620788900
      m_Sprite: {fileID: 21300000, guid: d38e67252fdbfc315a1075951919261a, type: 3}
    - m_Name: IdleUp
      m_Hash: 1560457943
      m_Sprite: {fileID: 21300000, guid: b82ef00b59f34c9fd8a950f08f95e2ec, type: 3}
    - m_Name: IdleLeft
      m_Hash: -100872689
      m_Sprite: {fileID: 21300000, guid: a5dcf5fa3d2851562b95d66081bdbe47, type: 3}
    - m_Name: WalkingDown
      m_Hash: -1447365632
      m_Sprite: {fileID: 21300000, guid: 2511dcfb75e6291bf9fee54b994a6708, type: 3}
    - m_Name: WalkingUp
      m_Hash: 1473565112
      m_Sprite: {fileID: 21300000, guid: 0ded803cb4fac1c1c9d278f1978198af, type: 3}
    - m_Name: WalkingLeft1
      m_Hash: 1903283578
      m_Sprite: {fileID: 21300000, guid: 2c0d61f07c6836aed937b030719fa60f, type: 3}
    - m_Name: WalkingLeft2
      m_Hash: -394748736
      m_Sprite: {fileID: 21300000, guid: 2c0d61f07c6836aed937b030719fa60f, type: 3}
  - m_Name: Female
    m_Hash: 1306038106
    m_CategoryList:
    - m_Name: IdleDown
      m_Hash: -1620788900
      m_Sprite: {fileID: 21300000, guid: d38e67252fdbfc315a1075951919261a, type: 3}
    - m_Name: IdleUp
      m_Hash: 1560457943
      m_Sprite: {fileID: 21300000, guid: b82ef00b59f34c9fd8a950f08f95e2ec, type: 3}
    - m_Name: IdleLeft
      m_Hash: -100872689
      m_Sprite: {fileID: 21300000, guid: a5dcf5fa3d2851562b95d66081bdbe47, type: 3}
    - m_Name: WalkingDown
      m_Hash: -1447365632
      m_Sprite: {fileID: 21300000, guid: 2511dcfb75e6291bf9fee54b994a6708, type: 3}
    - m_Name: WalkingUp
      m_Hash: 1473565112
      m_Sprite: {fileID: 21300000, guid: 0ded803cb4fac1c1c9d278f1978198af, type: 3}
    - m_Name: WalkingLeft1
      m_Hash: 1903283578
      m_Sprite: {fileID: 21300000, guid: 2c0d61f07c6836aed937b030719fa60f, type: 3}
    - m_Name: WalkingLeft2
      m_Hash: -394748736
      m_Sprite: {fileID: 21300000, guid: 2c0d61f07c6836aed937b030719fa60f, type: 3}
  - m_Name: MaleShiny
    m_Hash: -717554358
    m_CategoryList:
    - m_Name: IdleDown
      m_Hash: -1620788900
      m_Sprite: {fileID: 21300000, guid: 474898c0185c3a2c4b1bccd83e4f90d1, type: 3}
    - m_Name: IdleUp
      m_Hash: 1560457943
      m_Sprite: {fileID: 21300000, guid: abc52764ba5cbf50b85c64b2b55dede1, type: 3}
    - m_Name: IdleLeft
      m_Hash: -100872689
      m_Sprite: {fileID: 21300000, guid: 0b967998ffd877a1780de0ad5692c7c6, type: 3}
    - m_Name: WalkingDown
      m_Hash: -1447365632
      m_Sprite: {fileID: 21300000, guid: 6ffbb200492045260a84bb6d61f40abf, type: 3}
    - m_Name: WalkingUp
      m_Hash: 1473565112
      m_Sprite: {fileID: 21300000, guid: 294a44cdd6dfa4c4481a49204d52f02b, type: 3}
    - m_Name: WalkingLeft1
      m_Hash: 1903283578
      m_Sprite: {fileID: 21300000, guid: 39a94118590cdb584ba512af4dc8211c, type: 3}
    - m_Name: WalkingLeft2
      m_Hash: -394748736
      m_Sprite: {fileID: 21300000, guid: 39a94118590cdb584ba512af4dc8211c, type: 3}
  - m_Name: FemaleShiny
    m_Hash: -747190733
    m_CategoryList:
    - m_Name: IdleDown
      m_Hash: -1620788900
      m_Sprite: {fileID: 21300000, guid: 474898c0185c3a2c4b1bccd83e4f90d1, type: 3}
    - m_Name: IdleUp
      m_Hash: 1560457943
      m_Sprite: {fileID: 21300000, guid: abc52764ba5cbf50b85c64b2b55dede1, type: 3}
    - m_Name: IdleLeft
      m_Hash: -100872689
      m_Sprite: {fileID: 21300000, guid: 0b967998ffd877a1780de0ad5692c7c6, type: 3}
    - m_Name: WalkingDown
      m_Hash: -1447365632
      m_Sprite: {fileID: 21300000, guid: 6ffbb200492045260a84bb6d61f40abf, type: 3}
    - m_Name: WalkingUp
      m_Hash: 1473565112
      m_Sprite: {fileID: 21300000, guid: 294a44cdd6dfa4c4481a49204d52f02b, type: 3}
    - m_Name: WalkingLeft1
      m_Hash: 1903283578
      m_Sprite: {fileID: 21300000, guid: 39a94118590cdb584ba512af4dc8211c, type: 3}
    - m_Name: WalkingLeft2
      m_Hash: -394748736
      m_Sprite: {fileID: 21300000, guid: 39a94118590cdb584ba512af4dc8211c, type: 3}
