%YAML 1.1
%TAG !u! tag:unity3d.com,2011:
--- !u!114 &11400000
MonoBehaviour:
  m_ObjectHideFlags: 0
  m_CorrespondingSourceObject: {fileID: 0}
  m_PrefabInstance: {fileID: 0}
  m_PrefabAsset: {fileID: 0}
  m_GameObject: {fileID: 0}
  m_Enabled: 1
  m_EditorHideFlags: 0
  m_Script: {fileID: 11500000, guid: 5bf7c34a0dc4e6348bea04faa70406ee, type: 3}
  m_Name: Stantler
  m_EditorClassIdentifier: 
  m_Labels:
  - m_Name: Male
    m_Hash: -172011625
    m_CategoryList:
    - m_Name: IdleDown
      m_Hash: -1620788900
      m_Sprite: {fileID: 21300000, guid: 72ba3a0cffbb537049b3630e6030c72d, type: 3}
    - m_Name: IdleUp
      m_Hash: 1560457943
      m_Sprite: {fileID: 21300000, guid: 2fbd2e0bdafe9bbedb4034a9806c9e39, type: 3}
    - m_Name: IdleLeft
      m_Hash: -100872689
      m_Sprite: {fileID: 21300000, guid: 206619b7c8633799cae8202062e9722a, type: 3}
    - m_Name: WalkingDown
      m_Hash: -1447365632
      m_Sprite: {fileID: 21300000, guid: 77145f668f6963227a00a4f96f989ae3, type: 3}
    - m_Name: WalkingUp
      m_Hash: 1473565112
      m_Sprite: {fileID: 21300000, guid: 4c501ad89e36b905ca95564383f44f9d, type: 3}
    - m_Name: WalkingLeft1
      m_Hash: 1903283578
      m_Sprite: {fileID: 21300000, guid: cf7147a38a916dad0a3c07582bedf585, type: 3}
    - m_Name: WalkingLeft2
      m_Hash: -394748736
      m_Sprite: {fileID: 21300000, guid: cf7147a38a916dad0a3c07582bedf585, type: 3}
  - m_Name: Female
    m_Hash: 1306038106
    m_CategoryList:
    - m_Name: IdleDown
      m_Hash: -1620788900
      m_Sprite: {fileID: 21300000, guid: 72ba3a0cffbb537049b3630e6030c72d, type: 3}
    - m_Name: IdleUp
      m_Hash: 1560457943
      m_Sprite: {fileID: 21300000, guid: 2fbd2e0bdafe9bbedb4034a9806c9e39, type: 3}
    - m_Name: IdleLeft
      m_Hash: -100872689
      m_Sprite: {fileID: 21300000, guid: 206619b7c8633799cae8202062e9722a, type: 3}
    - m_Name: WalkingDown
      m_Hash: -1447365632
      m_Sprite: {fileID: 21300000, guid: 77145f668f6963227a00a4f96f989ae3, type: 3}
    - m_Name: WalkingUp
      m_Hash: 1473565112
      m_Sprite: {fileID: 21300000, guid: 4c501ad89e36b905ca95564383f44f9d, type: 3}
    - m_Name: WalkingLeft1
      m_Hash: 1903283578
      m_Sprite: {fileID: 21300000, guid: cf7147a38a916dad0a3c07582bedf585, type: 3}
    - m_Name: WalkingLeft2
      m_Hash: -394748736
      m_Sprite: {fileID: 21300000, guid: cf7147a38a916dad0a3c07582bedf585, type: 3}
  - m_Name: MaleShiny
    m_Hash: -717554358
    m_CategoryList:
    - m_Name: IdleDown
      m_Hash: -1620788900
      m_Sprite: {fileID: 21300000, guid: 093afcfb241873bc5a6a867a0eac7167, type: 3}
    - m_Name: IdleUp
      m_Hash: 1560457943
      m_Sprite: {fileID: 21300000, guid: f5c40952db9a6a1f98909e70b744bd42, type: 3}
    - m_Name: IdleLeft
      m_Hash: -100872689
      m_Sprite: {fileID: 21300000, guid: 7d475480fe7f780f0bd466dbefae45fb, type: 3}
    - m_Name: WalkingDown
      m_Hash: -1447365632
      m_Sprite: {fileID: 21300000, guid: efb7269600b3bf8aca0123211dc445e5, type: 3}
    - m_Name: WalkingUp
      m_Hash: 1473565112
      m_Sprite: {fileID: 21300000, guid: 61098345b873c3dac8e7cfd32d240a66, type: 3}
    - m_Name: WalkingLeft1
      m_Hash: 1903283578
      m_Sprite: {fileID: 21300000, guid: fa1af72b2cb14ba01b8d32d7ae2c0b36, type: 3}
    - m_Name: WalkingLeft2
      m_Hash: -394748736
      m_Sprite: {fileID: 21300000, guid: fa1af72b2cb14ba01b8d32d7ae2c0b36, type: 3}
  - m_Name: FemaleShiny
    m_Hash: -747190733
    m_CategoryList:
    - m_Name: IdleDown
      m_Hash: -1620788900
      m_Sprite: {fileID: 21300000, guid: 093afcfb241873bc5a6a867a0eac7167, type: 3}
    - m_Name: IdleUp
      m_Hash: 1560457943
      m_Sprite: {fileID: 21300000, guid: f5c40952db9a6a1f98909e70b744bd42, type: 3}
    - m_Name: IdleLeft
      m_Hash: -100872689
      m_Sprite: {fileID: 21300000, guid: 7d475480fe7f780f0bd466dbefae45fb, type: 3}
    - m_Name: WalkingDown
      m_Hash: -1447365632
      m_Sprite: {fileID: 21300000, guid: efb7269600b3bf8aca0123211dc445e5, type: 3}
    - m_Name: WalkingUp
      m_Hash: 1473565112
      m_Sprite: {fileID: 21300000, guid: 61098345b873c3dac8e7cfd32d240a66, type: 3}
    - m_Name: WalkingLeft1
      m_Hash: 1903283578
      m_Sprite: {fileID: 21300000, guid: fa1af72b2cb14ba01b8d32d7ae2c0b36, type: 3}
    - m_Name: WalkingLeft2
      m_Hash: -394748736
      m_Sprite: {fileID: 21300000, guid: fa1af72b2cb14ba01b8d32d7ae2c0b36, type: 3}
