%YAML 1.1
%TAG !u! tag:unity3d.com,2011:
--- !u!114 &11400000
MonoBehaviour:
  m_ObjectHideFlags: 0
  m_CorrespondingSourceObject: {fileID: 0}
  m_PrefabInstance: {fileID: 0}
  m_PrefabAsset: {fileID: 0}
  m_GameObject: {fileID: 0}
  m_Enabled: 1
  m_EditorHideFlags: 0
  m_Script: {fileID: 11500000, guid: 5bf7c34a0dc4e6348bea04faa70406ee, type: 3}
  m_Name: Sunkern
  m_EditorClassIdentifier: 
  m_Labels:
  - m_Name: Male
    m_Hash: -172011625
    m_CategoryList:
    - m_Name: IdleDown
      m_Hash: -1620788900
      m_Sprite: {fileID: 21300000, guid: 48e64ad457e26113f84a89ed2a184f0f, type: 3}
    - m_Name: IdleUp
      m_Hash: 1560457943
      m_Sprite: {fileID: 21300000, guid: 0b783a59112077ce39763e6259eb9c18, type: 3}
    - m_Name: IdleLeft
      m_Hash: -100872689
      m_Sprite: {fileID: 21300000, guid: cff6e6ba2f0f7d5598a38e1f6ee3a132, type: 3}
    - m_Name: WalkingDown
      m_Hash: -1447365632
      m_Sprite: {fileID: 21300000, guid: 5c7bc0108585246afa1ee85533e0d3bd, type: 3}
    - m_Name: WalkingUp
      m_Hash: 1473565112
      m_Sprite: {fileID: 21300000, guid: 68b86d6409bea6e9bb2903873bc96586, type: 3}
    - m_Name: WalkingLeft1
      m_Hash: 1903283578
      m_Sprite: {fileID: 21300000, guid: 392074dad545ed62f817d7ca8748ea57, type: 3}
    - m_Name: WalkingLeft2
      m_Hash: -394748736
      m_Sprite: {fileID: 21300000, guid: 392074dad545ed62f817d7ca8748ea57, type: 3}
  - m_Name: Female
    m_Hash: 1306038106
    m_CategoryList:
    - m_Name: IdleDown
      m_Hash: -1620788900
      m_Sprite: {fileID: 21300000, guid: 48e64ad457e26113f84a89ed2a184f0f, type: 3}
    - m_Name: IdleUp
      m_Hash: 1560457943
      m_Sprite: {fileID: 21300000, guid: 0b783a59112077ce39763e6259eb9c18, type: 3}
    - m_Name: IdleLeft
      m_Hash: -100872689
      m_Sprite: {fileID: 21300000, guid: cff6e6ba2f0f7d5598a38e1f6ee3a132, type: 3}
    - m_Name: WalkingDown
      m_Hash: -1447365632
      m_Sprite: {fileID: 21300000, guid: 5c7bc0108585246afa1ee85533e0d3bd, type: 3}
    - m_Name: WalkingUp
      m_Hash: 1473565112
      m_Sprite: {fileID: 21300000, guid: 68b86d6409bea6e9bb2903873bc96586, type: 3}
    - m_Name: WalkingLeft1
      m_Hash: 1903283578
      m_Sprite: {fileID: 21300000, guid: 392074dad545ed62f817d7ca8748ea57, type: 3}
    - m_Name: WalkingLeft2
      m_Hash: -394748736
      m_Sprite: {fileID: 21300000, guid: 392074dad545ed62f817d7ca8748ea57, type: 3}
  - m_Name: MaleShiny
    m_Hash: -717554358
    m_CategoryList:
    - m_Name: IdleDown
      m_Hash: -1620788900
      m_Sprite: {fileID: 21300000, guid: a3bb78c020ae7d08d94aa1ee742d7788, type: 3}
    - m_Name: IdleUp
      m_Hash: 1560457943
      m_Sprite: {fileID: 21300000, guid: ebf28965d7ab680fba01291965325b8b, type: 3}
    - m_Name: IdleLeft
      m_Hash: -100872689
      m_Sprite: {fileID: 21300000, guid: f1ba6f069e0c8c040b970fe8b73740e6, type: 3}
    - m_Name: WalkingDown
      m_Hash: -1447365632
      m_Sprite: {fileID: 21300000, guid: 42ee1b1ea850e80f28c3cc9226608544, type: 3}
    - m_Name: WalkingUp
      m_Hash: 1473565112
      m_Sprite: {fileID: 21300000, guid: 1ca315c3ec0d4e107849f02d25480399, type: 3}
    - m_Name: WalkingLeft1
      m_Hash: 1903283578
      m_Sprite: {fileID: 21300000, guid: 595cf0afb9a6b85d8a9fe9420e6a586e, type: 3}
    - m_Name: WalkingLeft2
      m_Hash: -394748736
      m_Sprite: {fileID: 21300000, guid: 595cf0afb9a6b85d8a9fe9420e6a586e, type: 3}
  - m_Name: FemaleShiny
    m_Hash: -747190733
    m_CategoryList:
    - m_Name: IdleDown
      m_Hash: -1620788900
      m_Sprite: {fileID: 21300000, guid: a3bb78c020ae7d08d94aa1ee742d7788, type: 3}
    - m_Name: IdleUp
      m_Hash: 1560457943
      m_Sprite: {fileID: 21300000, guid: ebf28965d7ab680fba01291965325b8b, type: 3}
    - m_Name: IdleLeft
      m_Hash: -100872689
      m_Sprite: {fileID: 21300000, guid: f1ba6f069e0c8c040b970fe8b73740e6, type: 3}
    - m_Name: WalkingDown
      m_Hash: -1447365632
      m_Sprite: {fileID: 21300000, guid: 42ee1b1ea850e80f28c3cc9226608544, type: 3}
    - m_Name: WalkingUp
      m_Hash: 1473565112
      m_Sprite: {fileID: 21300000, guid: 1ca315c3ec0d4e107849f02d25480399, type: 3}
    - m_Name: WalkingLeft1
      m_Hash: 1903283578
      m_Sprite: {fileID: 21300000, guid: 595cf0afb9a6b85d8a9fe9420e6a586e, type: 3}
    - m_Name: WalkingLeft2
      m_Hash: -394748736
      m_Sprite: {fileID: 21300000, guid: 595cf0afb9a6b85d8a9fe9420e6a586e, type: 3}
