{
  "FinalBattleAux11": {
    "lines": [
      {
        "name": "Ace Trainer",
        "portrait": "AceTrainerMale",
        "text": "Eheheh..."
      }
    ]
  },
  "FinalBattleAux12": {
    "lines": [
      {
        "name": "Ace Trainer",
        "portrait": "AceTrainerMale",
        "text": "Thank you for playing!"
      }
    ]
  },
  "FinalBattleAux21": {
    "lines": [
      {
        "name": "Ace Trainer",
        "portrait": "AceTrainerFemale",
        "text": "Ihihih..."
      }
    ]
  },
  "FinalBattleAux22": {
    "lines": [
      {
        "name": "Ace Trainer",
        "portrait": "AceTrainerFemale",
        "text": "Thank you for playing!"
      }
    ]
  },
  "FinalBattle1": {
    "lines": [
      {
        "name": "Alpha",
        "portrait": "Alpha",
        "text": "Here you are! Nice to see you again!"
      },
      {
        "name": "Alpha",
        "portrait": "Alpha",
        "text": "Didn't I tell you I would see you again at the end of things? Well, here it is."
      },
      {
        "name": "Alpha",
        "portrait": "Alpha",
        "text": "My associates here are your final challenge. They're pretty tough, so you'd better use every trick you have learned up until now."
      },
      {
        "name": "Alpha",
        "portrait": "Alpha",
        "text": "Of course, it wouldn't be fair if you were alone. So I will battle at your side! Exciting, right?"
      },
      {
        "name": "Alpha",
        "portrait": "Alpha",
        "text": "It's also the best place to gather data on your performance, if you ask me."
      },
      {
        "name": "Alpha",
        "portrait": "Alpha",
        "text": "Are you ready? Of course you are!"
      },
      {
        "name": "Alpha",
        "portrait": "Alpha",
        "text": "Let's go!",
        "effect": "Battle",
        "effect_data": "FinalBattle"
      }
    ]
  },
  "FinalBattle2": {
    "lines": [
      {
        "name": "Alpha",
        "portrait": "Alpha",
        "text": "Yes! We won! Ahahah!"
      },
      {
        "name": "Alpha",
        "portrait": "Alpha",
        "text": "Sorry, sorry. I got a little bit carried away. You won!"
      },
      {
        "name": "Alpha",
        "portrait": "Alpha",
        "text": "Congratulations! This concludes this demo."
      }
    ],
    "links": [
      {
        "line": "Is it really the end?",
        "link": "FinalBattle3"
      },
      {
        "line": "Will there be more?",
        "link": "FinalBattle4"
      },
      {
        "line": "That was fun.",
        "link": "FinalBattle5"
      }
    ]
  },
  "FinalBattle3": {
    "lines": [
      {
        "name": "Alpha",
        "portrait": "Alpha",
        "text": "I'm afraid so... It might not be much gameplay, but I have it on good authority it still took one full year to assemble."
      },
      {
        "name": "Alpha",
        "portrait": "Alpha",
        "text": "Fully from scratch, I might add."
      },
      {
        "name": "Alpha",
        "portrait": "Alpha",
        "text": "Well, not entirely from scratch. Assets such as graphics and music are lifted from several of the official games. But the rest, sure, all 100% home-grown."
      },
      {
        "name": "Alpha",
        "portrait": "Alpha",
        "text": "Back to your question: yes, this is the end."
      }
    ],
    "links": [
      {
        "line": "Will there be more?",
        "link": "FinalBattle4"
      },
      {
        "line": "That was fun.",
        "link": "FinalBattle5"
      }
    ]
  },
  "FinalBattle4": {
    "lines": [
      {
        "name": "Alpha",
        "portrait": "Alpha",
        "text": "Of course there will be more! It's not like all this effort is going to just end here, don't you think?"
      },
      {
        "name": "Alpha",
        "portrait": "Alpha",
        "text": "There is still so much to do, and the amount of features and content still to implement is simply gigantic."
      },
      {
        "name": "Alpha",
        "portrait": "Alpha",
        "text": "Maybe someday you'll receive a new demo, full to the brim with new stuff and polish. Who knows?"
      },
      {
        "name": "Alpha",
        "portrait": "Alpha",
        "text": "But for the moment, this was all there was to see."
      }
    ],
    "links": [
      {
        "line": "Is it really the end?",
        "link": "FinalBattle3"
      },
      {
        "line": "That was fun.",
        "link": "FinalBattle5"
      }
    ]
  },
  "FinalBattle5": {
    "lines": [
      {
        "name": "Alpha",
        "portrait": "Alpha",
        "text": "It was, wasn't it? I hope you really did enjoy this."
      },
      {
        "name": "Alpha",
        "portrait": "Alpha",
        "text": "Even if it's the end, I'm not gonna boot you out of here. You can still run around and talk to people, if you want. Not much else to do, however."
      },
      {
        "name": "Alpha",
        "portrait": "Alpha",
        "text": "Bye bye! Maybe I'll see you again some day! And thank you for playing!"
      }
    ]
  }
}