{
  "Aeroblast": {
    "index": 177,
    "description": "A vortex of air is shot at the target to inflict damage. Critical hits land more easily.",
    "type": "Flying",
    "class": "Special",
    "pp": 5,
    "accuracy": 95,
    "target": "Target",
    "base_power": 100,
    "critical_stage": 1,
    "flags": [
      "BlockedByProtect",
      "CopiableByMirrorMove"
    ]
  },
  "Ancient Power": {
    "index": 246,
    "description": "The user attacks with a prehistoric power. This may also raise all the user's stats at once.",
    "type": "Rock",
    "class": "Special",
    "pp": 5,
    "accuracy": 100,
    "target": "Target",
    "base_power": 60,
    "user_stat_changes_chance": 10,
    "user_stat_changes": {
      "Attack": 1,
      "Defense": 1,
      "SpecialAttack": 1,
      "SpecialDefense": 1,
      "Speed": 1
    },
    "flags": [
      "BlockedByProtect",
      "CopiableByMirrorMove"
    ]
  },
  "Attract": {
    "index": 213,
    "description": "If it is the opposite gender of the user, the target becomes infatuated and less likely to attack.",
    "type": "Normal",
    "class": "Status",
    "pp": 15,
    "accuracy": 100,
    "target": "Target",
    "special_effect": "Attract",
    "flags": [
      "BlockedByProtect",
      "BounceableByMagicCoat",
      "CopiableByMirrorMove",
      "IgnoresSubstitute"
    ]
  },
  "Baton Pass": {
    "index": 226,
    "description": "The user switches places with a party Pokémon in waiting and passes along any stat changes.",
    "type": "Normal",
    "class": "Status",
    "pp": 40,
    "target": "Self",
    "special_effect": "BatonPass"
  },
  "Beat Up": {
    "index": 251,
    "description": "The user gets all party Pokémon to attack the target. The more party Pokémon, the greater the number of attacks.",
    "type": "Dark",
    "class": "Physical",
    "pp": 10,
    "accuracy": 100,
    "target": "Target",
    "special_effect": "BeatUp",
    "flags": [
      "BlockedByProtect",
      "CopiableByMirrorMove",
      "AnimatesAgainstAlly"
    ]
  },
  "Belly Drum": {
    "index": 187,
    "description": "The user maximizes its Attack stat in exchange for HP equal to half its max HP.",
    "type": "Normal",
    "class": "Status",
    "pp": 10,
    "target": "Self",
    "special_effect": "BellyDrum",
    "flags": [
      "Snatchable"
    ]
  },
  "Bone Rush": {
    "index": 198,
    "description": "The user strikes the target with a hard bone two to five times in a row.",
    "type": "Ground",
    "class": "Physical",
    "pp": 10,
    "accuracy": 90,
    "target": "Target",
    "base_power": 25,
    "multi_strike": true,
    "flags": [
      "BlockedByProtect",
      "CopiableByMirrorMove"
    ]
  },
  "Charm": {
    "index": 204,
    "description": "The user gazes at the target rather charmingly, making it less wary. This harshly lowers its Attack stat.",
    "type": "Fairy",
    "class": "Status",
    "pp": 20,
    "accuracy": 100,
    "target": "Target",
    "target_stat_changes_chance": 100,
    "target_stat_changes": {
      "Attack": -2
    },
    "flags": [
      "BlockedByProtect",
      "BounceableByMagicCoat",
      "CopiableByMirrorMove",
      "AnimatesAgainstAlly"
    ]
  },
  "Conversion 2": {
    "index": 176,
    "description": "The user changes its type to make itself resistant to the type of the attack the opponent used last.",
    "type": "Normal",
    "class": "Status",
    "pp": 30,
    "target": "Target",
    "special_effect": "Conversion2",
    "flags": [
      "IgnoresSubstitute"
    ]
  },
  "Cotton Spore": {
    "index": 178,
    "description": "The user releases cotton-like spores that cling to the opposing Pokémon, which harshly lowers their Speed stats.",
    "type": "Grass",
    "class": "Status",
    "pp": 40,
    "accuracy": 100,
    "target": "Enemies",
    "target_stat_changes_chance": 100,
    "target_stat_changes": {
      "Speed": -2
    },
    "flags": [
      "BlockedByProtect",
      "BounceableByMagicCoat",
      "CopiableByMirrorMove"
    ]
  },
  "Cross Chop": {
    "index": 238,
    "description": "The user delivers a double chop with its forearms crossed. Critical hits land more easily.",
    "type": "Fighting",
    "class": "Physical",
    "pp": 5,
    "accuracy": 80,
    "target": "Target",
    "base_power": 100,
    "critical_stage": 1,
    "flags": [
      "Contact",
      "BlockedByProtect",
      "CopiableByMirrorMove"
    ]
  },
  "Crunch": {
    "index": 242,
    "description": "The user crunches up the target with sharp fangs. This may also lower the target's Defense stat.",
    "type": "Dark",
    "class": "Physical",
    "pp": 15,
    "accuracy": 100,
    "target": "Target",
    "base_power": 80,
    "target_stat_changes_chance": 20,
    "target_stat_changes": {
      "Defense": -1
    },
    "flags": [
      "Contact",
      "BlockedByProtect",
      "CopiableByMirrorMove"
    ]
  },
  "Curse": {
    "index": 174,
    "description": "A move that works differently for the Ghost type than for all other types.",
    "type": "Ghost",
    "class": "Status",
    "pp": 10,
    "target": "Self",
    "special_effect": "Curse",
    "flags": [
      "IgnoresSubstitute"
    ]
  },
  "Destiny Bond": {
    "index": 194,
    "description": "When this move is used, if the user faints, the Pokémon that landed the knockout hit also faints.",
    "type": "Ghost",
    "class": "Status",
    "pp": 5,
    "target": "Self",
    "special_effect": "DestinyBond",
    "flags": [
      "IgnoresSubstitute"
    ]
  },
  "Detect": {
    "index": 197,
    "description": "Enables the user to evade all attacks. Its chance of failing rises if it is used in succession.",
    "type": "Fighting",
    "class": "Status",
    "pp": 5,
    "target": "Self",
    "priority": 4,
    "special_effect": "Protection"
  },
  "Dragon Breath": {
    "index": 225,
    "description": "The user exhales a mighty gust that inflicts damage. This may also leave the target with paralysis.",
    "type": "Dragon",
    "class": "Special",
    "pp": 20,
    "accuracy": 100,
    "target": "Target",
    "base_power": 60,
    "paralysis_chance": 30,
    "flags": [
      "BlockedByProtect",
      "CopiableByMirrorMove"
    ]
  },
  "Dynamic Punch": {
    "index": 223,
    "description": "The user punches the target with full, concentrated power. This confuses the target if it hits.",
    "type": "Fighting",
    "class": "Physical",
    "pp": 5,
    "accuracy": 50,
    "target": "Target",
    "base_power": 100,
    "confusion_chance": 100,
    "flags": [
      "Contact",
      "BlockedByProtect",
      "CopiableByMirrorMove",
      "Punch"
    ]
  },
  "Encore": {
    "index": 227,
    "description": "The user compels the target to keep using only the move it last used for three turns.",
    "type": "Normal",
    "class": "Status",
    "pp": 5,
    "accuracy": 100,
    "target": "Target",
    "special_effect": "Encore",
    "flags": [
      "BlockedByProtect",
      "BounceableByMagicCoat",
      "CopiableByMirrorMove",
      "IgnoresSubstitute"
    ]
  },
  "Endure": {
    "index": 203,
    "description": "The user endures any attack with at least 1 HP. Its chance of failing rises if it is used in succession.",
    "type": "Normal",
    "class": "Status",
    "pp": 10,
    "target": "Target",
    "priority": 4,
    "special_effect": "Endure"
  },
  "Extreme Speed": {
    "index": 245,
    "description": "The user charges the target at blinding speed. This move always goes first.",
    "type": "Normal",
    "class": "Physical",
    "pp": 5,
    "accuracy": 100,
    "target": "Target",
    "priority": 2,
    "base_power": 80,
    "flags": [
      "Contact",
      "BlockedByProtect",
      "CopiableByMirrorMove"
    ]
  },
  "False Swipe": {
    "index": 206,
    "description": "A restrained attack that prevents the target from fainting. The target is left with at least 1 HP.",
    "type": "Normal",
    "class": "Physical",
    "pp": 40,
    "accuracy": 100,
    "target": "Target",
    "base_power": 40,
    "special_effect": "FalseSwipe",
    "flags": [
      "Contact",
      "BlockedByProtect",
      "CopiableByMirrorMove"
    ]
  },
  "Feint Attack": {
    "index": 185,
    "description": "The user approaches the target disarmingly, then throws a sucker punch. This attack never misses.",
    "type": "Dark",
    "class": "Physical",
    "pp": 20,
    "target": "Target",
    "base_power": 60,
    "flags": [
      "Contact",
      "BlockedByProtect",
      "CopiableByMirrorMove"
    ]
  },
  "Flail": {
    "index": 175,
    "description": "The user flails about aimlessly to attack. The less HP the user has, the greater the move's power.",
    "type": "Normal",
    "class": "Physical",
    "pp": 15,
    "accuracy": 100,
    "target": "Target",
    "special_effect": "FlailLike",
    "flags": [
      "Contact",
      "BlockedByProtect",
      "CopiableByMirrorMove"
    ]
  },
  "Flame Wheel": {
    "index": 172,
    "description": "The user cloaks itself in fire and charges at the target. This may also leave the target with a burn.",
    "type": "Fire",
    "class": "Physical",
    "pp": 25,
    "accuracy": 100,
    "target": "Target",
    "base_power": 60,
    "burn_chance": 10,
    "flags": [
      "Contact",
      "BlockedByProtect",
      "CopiableByMirrorMove",
      "ThawsUser"
    ]
  },
  "Foresight": {
    "index": 193,
    "description": "Enables a Ghost-type target to be hit by Normal- and Fighting-type attacks. This also enables an evasive target to be hit.",
    "type": "Normal",
    "class": "Status",
    "pp": 40,
    "target": "Target",
    "special_effect": "ForesightLike",
    "flags": [
      "BlockedByProtect",
      "BounceableByMagicCoat",
      "CopiableByMirrorMove",
      "IgnoresSubstitute"
    ]
  },
  "Frustration": {
    "index": 218,
    "description": "A full-power attack that grows more powerful the less the user likes its Trainer.",
    "type": "Normal",
    "class": "Physical",
    "pp": 20,
    "accuracy": 100,
    "target": "Target",
    "special_effect": "Frustration",
    "flags": [
      "Contact",
      "BlockedByProtect",
      "CopiableByMirrorMove"
    ]
  },
  "Fury Cutter": {
    "index": 210,
    "description": "The target is slashed with scythes or claws. This attack becomes more powerful if it hits in succession.",
    "type": "Bug",
    "class": "Physical",
    "pp": 20,
    "accuracy": 95,
    "target": "Target",
    "base_power": 40,
    "special_effect": "FuryCutter",
    "flags": [
      "Contact",
      "BlockedByProtect",
      "CopiableByMirrorMove"
    ]
  },
  "Future Sight": {
    "index": 248,
    "description": "Two turns after this move is used, a hunk of psychic energy attacks the target.",
    "type": "Psychic",
    "class": "Special",
    "pp": 10,
    "accuracy": 100,
    "target": "Target",
    "base_power": 120,
    "special_effect": "FutureAttack"
  },
  "Giga Drain": {
    "index": 202,
    "description": "A nutrient-draining attack. The user's HP is restored by half the damage taken by the target.",
    "type": "Grass",
    "class": "Special",
    "pp": 10,
    "accuracy": 100,
    "target": "Target",
    "base_power": 75,
    "leech": true,
    "flags": [
      "BlockedByProtect",
      "CopiableByMirrorMove",
      "BlockedByHealBlock"
    ]
  },
  "Heal Bell": {
    "index": 215,
    "description": "The user makes a soothing bell chime to heal the status conditions of all the party Pokémon.",
    "type": "Normal",
    "class": "Status",
    "pp": 5,
    "target": "AllyAndSelf",
    "special_effect": "HealPartyStatus",
    "flags": [
      "Snatchable",
      "SoundBased",
      "IgnoresSubstitute"
    ]
  },
  "Hidden Power": {
    "index": 237,
    "description": "A unique attack that varies in type depending on the Pokémon using it.",
    "type": "Normal",
    "class": "Special",
    "pp": 15,
    "accuracy": 100,
    "target": "Target",
    "base_power": 60,
    "special_effect": "HiddenPower",
    "flags": [
      "BlockedByProtect",
      "CopiableByMirrorMove"
    ]
  },
  "Icy Wind": {
    "index": 196,
    "description": "The user attacks with a gust of chilled air. This also lowers the opposing Pokémon's Speed stats.",
    "type": "Ice",
    "class": "Special",
    "pp": 15,
    "accuracy": 95,
    "target": "Enemies",
    "base_power": 55,
    "target_stat_changes_chance": 100,
    "target_stat_changes": {
      "Speed": -1
    },
    "flags": [
      "BlockedByProtect",
      "CopiableByMirrorMove"
    ]
  },
  "Iron Tail": {
    "index": 231,
    "description": "The target is slammed with a steel-hard tail. This may also lower the target's Defense stat.",
    "type": "Steel",
    "class": "Physical",
    "pp": 15,
    "accuracy": 75,
    "target": "Target",
    "base_power": 100,
    "target_stat_changes_chance": 30,
    "target_stat_changes": {
      "Defense": -1
    },
    "flags": [
      "Contact",
      "BlockedByProtect",
      "CopiableByMirrorMove"
    ]
  },
  "Lock-On": {
    "index": 199,
    "description": "The user takes sure aim at the target. This ensures the next attack does not miss the target.",
    "type": "Normal",
    "class": "Status",
    "pp": 5,
    "target": "Target",
    "special_effect": "NextMoveWillHit",
    "flags": [
      "BlockedByProtect",
      "CopiableByMirrorMove"
    ]
  },
  "Mach Punch": {
    "index": 183,
    "description": "The user throws a punch at blinding speed. This move always goes first.",
    "type": "Fighting",
    "class": "Physical",
    "pp": 30,
    "accuracy": 100,
    "target": "Target",
    "priority": 1,
    "base_power": 40,
    "flags": [
      "Contact",
      "BlockedByProtect",
      "CopiableByMirrorMove",
      "Punch"
    ]
  },
  "Magnitude": {
    "index": 222,
    "description": "The user attacks everything around it with a ground-shaking quake. Its power varies.",
    "type": "Ground",
    "class": "Physical",
    "pp": 30,
    "accuracy": 100,
    "target": "Target",
    "special_effect": "Magnitude",
    "flags": [
      "BlockedByProtect",
      "CopiableByMirrorMove"
    ]
  },
  "Mean Look": {
    "index": 212,
    "description": "The user pins the target with a dark, arresting look. The target becomes unable to flee.",
    "type": "Normal",
    "class": "Status",
    "pp": 5,
    "target": "Target",
    "special_effect": "Trap",
    "flags": [
      "BounceableByMagicCoat",
      "CopiableByMirrorMove"
    ]
  },
  "Megahorn": {
    "index": 224,
    "description": "Using its tough and impressive horn, the user rams into the target with no letup.",
    "type": "Bug",
    "class": "Physical",
    "pp": 10,
    "accuracy": 85,
    "target": "Target",
    "base_power": 120,
    "flags": [
      "Contact",
      "BlockedByProtect",
      "CopiableByMirrorMove"
    ]
  },
  "Metal Claw": {
    "index": 232,
    "description": "The target is raked with steel claws. This may also raise the user's Attack stat.",
    "type": "Steel",
    "class": "Physical",
    "pp": 35,
    "accuracy": 95,
    "target": "Target",
    "base_power": 50,
    "user_stat_changes_chance": 10,
    "user_stat_changes": {
      "Attack": 1
    },
    "flags": [
      "Contact",
      "BlockedByProtect",
      "CopiableByMirrorMove"
    ]
  },
  "Milk Drink": {
    "index": 208,
    "description": "The user restores its own HP by up to half of its max HP. May also be used in the field to heal HP.",
    "type": "Normal",
    "class": "Status",
    "pp": 10,
    "target": "Self",
    "special_effect": "Healing",
    "flags": [
      "Snatchable",
      "BlockedByHealBlock"
    ]
  },
  "Mind Reader": {
    "index": 170,
    "description": "The user senses the target's movements with its mind to ensure its next attack does not miss the target.",
    "type": "Normal",
    "class": "Status",
    "pp": 5,
    "target": "Target",
    "special_effect": "NextMoveWillHit",
    "flags": [
      "BlockedByProtect",
      "CopiableByMirrorMove"
    ]
  },
  "Mirror Coat": {
    "index": 243,
    "description": "A retaliation move that counters any special attack, inflicting double the damage taken.",
    "type": "Psychic",
    "class": "Special",
    "pp": 20,
    "accuracy": 100,
    "target": "Self",
    "priority": -5,
    "special_effect": "MirrorCoat",
    "flags": [
      "BlockedByProtect"
    ]
  },
  "Moonlight": {
    "index": 236,
    "description": "The user restores its own HP. The amount of HP regained varies with the weather.",
    "type": "Fairy",
    "class": "Status",
    "pp": 5,
    "target": "Self",
    "special_effect": "HealingSunny",
    "flags": [
      "Snatchable",
      "BlockedByHealBlock"
    ]
  },
  "Morning Sun": {
    "index": 234,
    "description": "The user restores its own HP. The amount of HP regained varies with the weather.",
    "type": "Normal",
    "class": "Status",
    "pp": 5,
    "target": "Self",
    "special_effect": "HealingSunny",
    "flags": [
      "Snatchable",
      "BlockedByHealBlock"
    ]
  },
  "Mud-Slap": {
    "index": 189,
    "description": "The user hurls mud in the target's face to inflict damage and lower its accuracy.",
    "type": "Ground",
    "class": "Special",
    "pp": 10,
    "accuracy": 100,
    "target": "Target",
    "base_power": 20,
    "target_stat_changes_chance": 100,
    "target_stat_changes": {
      "Accuracy": -1
    },
    "flags": [
      "BlockedByProtect",
      "CopiableByMirrorMove"
    ]
  },
  "Nightmare": {
    "index": 171,
    "description": "A sleeping target sees a nightmare that inflicts some damage every turn.",
    "type": "Ghost",
    "class": "Status",
    "pp": 15,
    "accuracy": 100,
    "target": "Target",
    "special_effect": "Nightmare",
    "flags": [
      "BlockedByProtect",
      "CopiableByMirrorMove",
      "RequiresTargetAsleep"
    ]
  },
  "Octazooka": {
    "index": 190,
    "description": "The user attacks by spraying ink at the target's face or eyes. This may also lower the target's accuracy.",
    "type": "Water",
    "class": "Special",
    "pp": 10,
    "accuracy": 85,
    "target": "Target",
    "base_power": 65,
    "target_stat_changes_chance": 50,
    "target_stat_changes": {
      "Accuracy": -1
    },
    "flags": [
      "BlockedByProtect",
      "CopiableByMirrorMove"
    ]
  },
  "Outrage": {
    "index": 200,
    "description": "The user rampages and attacks for two to three turns. It then becomes confused, however.",
    "type": "Dragon",
    "class": "Physical",
    "pp": 10,
    "accuracy": 100,
    "target": "Target",
    "base_power": 120,
    "special_effect": "LocksAndFatigues",
    "flags": [
      "Contact",
      "BlockedByProtect",
      "CopiableByMirrorMove"
    ]
  },
  "Pain Split": {
    "index": 220,
    "description": "The user adds its HP to the target's HP, then equally shares the combined HP with the target.",
    "type": "Normal",
    "class": "Status",
    "pp": 20,
    "target": "Target",
    "special_effect": "PainSplit",
    "flags": [
      "BlockedByProtect",
      "CopiableByMirrorMove",
      "AnimatesAgainstAlly"
    ]
  },
  "Perish Song": {
    "index": 195,
    "description": "Any Pokémon that hears this song faints in three turns, unless it switches out of battle.",
    "type": "Normal",
    "class": "Status",
    "pp": 5,
    "target": "All",
    "special_effect": "PerishSong",
    "flags": [
      "SoundBased",
      "IgnoresSubstitute"
    ]
  },
  "Powder Snow": {
    "index": 181,
    "description": "The user attacks with a chilling gust of powdery snow. This may also freeze the opposing Pokemon.",
    "type": "Ice",
    "class": "Special",
    "pp": 25,
    "accuracy": 100,
    "target": "Target",
    "base_power": 40,
    "freeze_chance": 10,
    "flags": [
      "BlockedByProtect",
      "CopiableByMirrorMove"
    ]
  },
  "Present": {
    "index": 217,
    "description": "The user attacks by giving the target a gift with a hidden trap. It restores HP sometimes, however.",
    "type": "Normal",
    "class": "Physical",
    "pp": 15,
    "accuracy": 90,
    "target": "Target",
    "special_effect": "Present",
    "flags": [
      "BlockedByProtect",
      "CopiableByMirrorMove"
    ]
  },
  "Protect": {
    "index": 182,
    "description": "Enables the user to evade all attacks. Its chance of failing rises if it is used in succession.",
    "type": "Normal",
    "class": "Status",
    "pp": 10,
    "target": "Target",
    "priority": 4,
    "special_effect": "Protection"
  },
  "Psych Up": {
    "index": 244,
    "description": "The user hypnotizes itself into copying any stat change made by the target.",
    "type": "Normal",
    "class": "Status",
    "pp": 10,
    "target": "Target",
    "special_effect": "PsychUp",
    "flags": [
      "IgnoresSubstitute",
      "AnimatesAgainstAlly"
    ]
  },
  "Pursuit": {
    "index": 228,
    "description": "An attack move that inflicts double damage if used on a target that is switching out of battle.",
    "type": "Dark",
    "class": "Physical",
    "pp": 20,
    "accuracy": 100,
    "target": "Target",
    "base_power": 40,
    "special_effect": "Pursuit",
    "flags": [
      "Contact",
      "BlockedByProtect",
      "CopiableByMirrorMove"
    ]
  },
  "Rain Dance": {
    "index": 240,
    "description": "The user summons a heavy rain that falls for five turns, powering up Water-type moves.",
    "type": "Water",
    "class": "Status",
    "pp": 5,
    "target": "Field",
    "weather": "Rain"
  },
  "Rapid Spin": {
    "index": 229,
    "description": "A spin attack that can also eliminate such moves as Bind, Wrap, Leech Seed, and Spikes.",
    "type": "Normal",
    "class": "Physical",
    "pp": 40,
    "accuracy": 100,
    "target": "Target",
    "base_power": 50,
    "user_stat_changes_chance": 100,
    "user_stat_changes": {
      "Speed": 1
    },
    "special_effect": "RapidSpin",
    "flags": [
      "Contact",
      "BlockedByProtect",
      "CopiableByMirrorMove"
    ]
  },
  "Return": {
    "index": 216,
    "description": "A full-power attack that grows more powerful the more the user likes its Trainer.",
    "type": "Normal",
    "class": "Physical",
    "pp": 20,
    "accuracy": 100,
    "target": "Target",
    "special_effect": "Return",
    "flags": [
      "Contact",
      "BlockedByProtect",
      "CopiableByMirrorMove"
    ]
  },
  "Reversal": {
    "index": 179,
    "description": "An all-out attack that becomes more powerful the less HP the user has.",
    "type": "Fighting",
    "class": "Physical",
    "pp": 15,
    "accuracy": 100,
    "target": "Target",
    "special_effect": "FlailLike",
    "flags": [
      "Contact",
      "BlockedByProtect",
      "CopiableByMirrorMove"
    ]
  },
  "Rock Smash": {
    "index": 249,
    "description": "The user attacks with a punch. This may also lower the target's Defense stat. This move can also shatter rocks in the field.",
    "type": "Fighting",
    "class": "Physical",
    "pp": 15,
    "accuracy": 100,
    "target": "Target",
    "base_power": 40,
    "target_stat_changes_chance": 50,
    "target_stat_changes": {
      "Defense": -1
    },
    "flags": [
      "Contact",
      "BlockedByProtect",
      "CopiableByMirrorMove"
    ]
  },
  "Rollout": {
    "index": 205,
    "description": "The user continually rolls into the target over five turns. It becomes more powerful each time it hits.",
    "type": "Rock",
    "class": "Physical",
    "pp": 20,
    "accuracy": 90,
    "target": "Target",
    "base_power": 30,
    "special_effect": "RolloutLike",
    "flags": [
      "Contact",
      "BlockedByProtect",
      "CopiableByMirrorMove"
    ]
  },
  "Sacred Fire": {
    "index": 221,
    "description": "The target is razed with a mystical fire of great intensity. This may also leave the target with a burn.",
    "type": "Fire",
    "class": "Physical",
    "pp": 5,
    "accuracy": 95,
    "target": "Target",
    "base_power": 100,
    "burn_chance": 50,
    "flags": [
      "BlockedByProtect",
      "CopiableByMirrorMove",
      "ThawsUser"
    ]
  },
  "Safeguard": {
    "index": 219,
    "description": "The user creates a protective field that prevents status conditions for five turns.",
    "type": "Normal",
    "class": "Status",
    "pp": 25,
    "target": "AlliedSide",
    "special_effect": "Safeguard",
    "flags": [
      "Snatchable"
    ]
  },
  "Sandstorm": {
    "index": 201,
    "description": "A five-turn sandstorm is summoned to hurt all combatants except the Rock, Ground, and Steel types.",
    "type": "Rock",
    "class": "Status",
    "pp": 10,
    "target": "Field",
    "weather": "Sandstorm"
  },
  "Scary Face": {
    "index": 184,
    "description": "The user frightens the target with a scary face to harshly lower its Speed stat.",
    "type": "Normal",
    "class": "Status",
    "pp": 10,
    "accuracy": 100,
    "target": "Target",
    "target_stat_changes_chance": 100,
    "target_stat_changes": {
      "Speed": -2
    },
    "flags": [
      "BlockedByProtect",
      "BounceableByMagicCoat",
      "CopiableByMirrorMove",
      "AnimatesAgainstAlly"
    ]
  },
  "Shadow Ball": {
    "index": 247,
    "description": "The user hurls a shadowy blob at the target. This may also lower the target's Sp. Def stat.",
    "type": "Ghost",
    "class": "Special",
    "pp": 15,
    "accuracy": 100,
    "target": "Target",
    "base_power": 80,
    "target_stat_changes_chance": 20,
    "target_stat_changes": {
      "SpecialDefense": -1
    },
    "flags": [
      "BlockedByProtect",
      "CopiableByMirrorMove"
    ]
  },
  "Sketch": {
    "index": 166,
    "description": "It enables the user to permanently learn the move last used by the target. Once used, Sketch disappears.",
    "type": "Normal",
    "class": "Status",
    "pp": 1,
    "target": "Target",
    "special_effect": "Sketch",
    "flags": [
      "IgnoresSubstitute",
      "AnimatesAgainstAlly"
    ]
  },
  "Sleep Talk": {
    "index": 214,
    "description": "While it is asleep, the user randomly uses one of the moves it knows.",
    "type": "Normal",
    "class": "Status",
    "pp": 10,
    "target": "Self",
    "special_effect": "SleepTalk",
    "flags": [
      "RequiresUserAsleep"
    ]
  },
  "Sludge Bomb": {
    "index": 188,
    "description": "Unsanitary sludge is hurled at the target. This may also poison the target.",
    "type": "Poison",
    "class": "Special",
    "pp": 10,
    "accuracy": 100,
    "target": "Target",
    "base_power": 90,
    "poison_chance": 30,
    "flags": [
      "BlockedByProtect",
      "CopiableByMirrorMove"
    ]
  },
  "Snore": {
    "index": 173,
    "description": "An attack that can be used only if the user is asleep. The harsh noise may also make the target flinch.",
    "type": "Normal",
    "class": "Special",
    "pp": 15,
    "accuracy": 100,
    "target": "Target",
    "base_power": 50,
    "flinch_chance": 30,
    "flags": [
      "BlockedByProtect",
      "CopiableByMirrorMove",
      "SoundBased",
      "IgnoresSubstitute",
      "RequiresUserAsleep"
    ]
  },
  "Spark": {
    "index": 209,
    "description": "The user throws an electrically charged tackle at the target. This may also leave the target with paralysis.",
    "type": "Electric",
    "class": "Physical",
    "pp": 20,
    "accuracy": 100,
    "target": "Target",
    "base_power": 65,
    "paralysis_chance": 30,
    "flags": [
      "Contact",
      "BlockedByProtect",
      "CopiableByMirrorMove"
    ]
  },
  "Spider Web": {
    "index": 169,
    "description": "The user ensnares the target with thin, gooey silk so it can't flee from battle.",
    "type": "Bug",
    "class": "Status",
    "pp": 10,
    "target": "Target",
    "special_effect": "Trap",
    "flags": [
      "BlockedByProtect",
      "BounceableByMagicCoat",
      "CopiableByMirrorMove"
    ]
  },
  "Spikes": {
    "index": 191,
    "description": "The user lays a trap of spikes at the opposing team's feet. The trap hurts Pokémon that switch into battle.",
    "type": "Ground",
    "class": "Status",
    "pp": 20,
    "target": "EnemySide",
    "special_effect": "Spikes",
    "flags": [
      "BounceableByMagicCoat"
    ]
  },
  "Spite": {
    "index": 180,
    "description": "The user unleashes its grudge on the move last used by the target by cutting 4 PP from it.",
    "type": "Ghost",
    "class": "Status",
    "pp": 10,
    "accuracy": 100,
    "target": "Target",
    "special_effect": "Spite",
    "flags": [
      "BlockedByProtect",
      "BounceableByMagicCoat",
      "CopiableByMirrorMove",
      "IgnoresSubstitute"
    ]
  },
  "Steel Wing": {
    "index": 211,
    "description": "The target is hit with wings of steel. This may also raise the user's Defense stat.",
    "type": "Steel",
    "class": "Physical",
    "pp": 25,
    "accuracy": 90,
    "target": "Target",
    "base_power": 70,
    "user_stat_changes_chance": 10,
    "user_stat_changes": {
      "Defense": 1
    },
    "flags": [
      "Contact",
      "BlockedByProtect",
      "CopiableByMirrorMove"
    ]
  },
  "Sunny Day": {
    "index": 241,
    "description": "The user intensifies the sun for five turns, powering up Fire-type moves.",
    "type": "Fire",
    "class": "Status",
    "pp": 5,
    "target": "Field",
    "weather": "Sun"
  },
  "Swagger": {
    "index": 207,
    "description": "The user enrages and confuses the target. However, this also sharply raises the target's Attack stat.",
    "type": "Normal",
    "class": "Status",
    "pp": 15,
    "accuracy": 85,
    "target": "Target",
    "confusion_chance": 100,
    "target_stat_changes_chance": 100,
    "target_stat_changes": {
      "Attack": 2
    },
    "flags": [
      "BlockedByProtect",
      "BounceableByMagicCoat",
      "CopiableByMirrorMove",
      "AnimatesAgainstAlly"
    ]
  },
  "Sweet Kiss": {
    "index": 186,
    "description": "The user kisses the target with a sweet, angelic cuteness that causes confusion.",
    "type": "Fairy",
    "class": "Status",
    "pp": 10,
    "accuracy": 75,
    "target": "Target",
    "confusion_chance": 100,
    "special_effect": "FailIfTargetConfused",
    "flags": [
      "BlockedByProtect",
      "BounceableByMagicCoat",
      "CopiableByMirrorMove"
    ]
  },
  "Sweet Scent": {
    "index": 230,
    "description": "A sweet scent that harshly lowers opposing Pokémon's evasiveness. This also lures wild Pokémon if used in places such as tall grass.",
    "type": "Normal",
    "class": "Status",
    "pp": 20,
    "accuracy": 100,
    "target": "Enemies",
    "target_stat_changes_chance": 100,
    "target_stat_changes": {
      "Evasion": -2
    },
    "flags": [
      "BlockedByProtect",
      "BounceableByMagicCoat",
      "CopiableByMirrorMove"
    ]
  },
  "Synthesis": {
    "index": 235,
    "description": "The user restores its own HP. The amount of HP regained varies with the weather.",
    "type": "Grass",
    "class": "Status",
    "pp": 5,
    "target": "Self",
    "special_effect": "HealingSunny",
    "flags": [
      "Snatchable",
      "BlockedByHealBlock"
    ]
  },
  "Thief": {
    "index": 168,
    "description": "The user attacks and steals the target's held item simultaneously. The user can't steal anything if it already holds an item.",
    "type": "Dark",
    "class": "Physical",
    "pp": 25,
    "accuracy": 100,
    "target": "Target",
    "base_power": 60,
    "special_effect": "StealsHeldItem",
    "flags": [
      "Contact",
      "BlockedByProtect",
      "CopiableByMirrorMove"
    ]
  },
  "Triple Kick": {
    "index": 167,
    "description": "A consecutive three-kick attack that becomes more powerful with each successive hit.",
    "type": "Fighting",
    "class": "Physical",
    "pp": 10,
    "accuracy": 90,
    "target": "Target",
    "base_power": 10,
    "special_effect": "TripleKick",
    "flags": [
      "Contact",
      "BlockedByProtect",
      "CopiableByMirrorMove"
    ]
  },
  "Twister": {
    "index": 239,
    "description": "The user whips up a vicious tornado to tear at the opposing Pokémon. This may also make them flinch.",
    "type": "Dragon",
    "class": "Special",
    "pp": 20,
    "accuracy": 100,
    "target": "Target",
    "base_power": 40,
    "flinch_chance": 20,
    "flags": [
      "BlockedByProtect",
      "CopiableByMirrorMove"
    ]
  },
  "Vital Throw": {
    "index": 233,
    "description": "The user attacks last. In return, this throw move never misses.",
    "type": "Fighting",
    "class": "Physical",
    "pp": 10,
    "target": "Target",
    "priority": -1,
    "base_power": 70,
    "flags": [
      "Contact",
      "BlockedByProtect",
      "CopiableByMirrorMove"
    ]
  },
  "Whirlpool": {
    "index": 250,
    "description": "The user traps the target in a violent swirling whirlpool for four to five turns.",
    "type": "Water",
    "class": "Special",
    "pp": 15,
    "accuracy": 85,
    "target": "Target",
    "base_power": 35,
    "special_effect": "TrapAndDamage",
    "flags": [
      "BlockedByProtect",
      "CopiableByMirrorMove"
    ]
  },
  "Zap Cannon": {
    "index": 192,
    "description": "The user fires an electric blast like a cannon to inflict damage and cause paralysis.",
    "type": "Electric",
    "class": "Special",
    "pp": 5,
    "accuracy": 50,
    "target": "Target",
    "base_power": 120,
    "paralysis_chance": 100,
    "flags": [
      "BlockedByProtect",
      "CopiableByMirrorMove"
    ]
  }
}