{
  "Ambipom": {
    "national_dex_number": 424,
    "male_ratio": 4,
    "type1": "Normal",
    "type2": "Typeless",
    "ability1": "Technician",
    "ability2": "Pickup",
    "hidden_ability": "Skill Link",
    "hp": 75,
    "attack": 100,
    "defense": 66,
    "special_attack": 60,
    "special_defense": 66,
    "speed": 115,
    "egg_group1": "Field",
    "egg_group2": "None",
    "hatch_counter": 20,
    "steps_to_hatch": 5355,
    "effort": "2Spe",
    "exp_group": "Fast",
    "base_experience": 169,
    "capture_rate": 45,
    "base_happiness": 100,
    "height": "1.2 m",
    "weight": "20.3 kg",
    "genus": "Long Tail Pokémon",
    "color": "Purple",
    "habitat": "",
    "shape": " Sciurine"
  },
  "Mismagius": {
    "national_dex_number": 429,
    "male_ratio": 4,
    "type1": "Ghost",
    "type2": "Typeless",
    "ability1": "Levitate",
    "ability2": "",
    "hidden_ability": "",
    "hp": 60,
    "attack": 60,
    "defense": 60,
    "special_attack": 105,
    "special_defense": 105,
    "speed": 105,
    "egg_group1": "Amorphous",
    "egg_group2": "None",
    "hatch_counter": 25,
    "steps_to_hatch": 6630,
    "effort": "1SpA, 1SpD",
    "exp_group": "Fast",
    "base_experience": 173,
    "capture_rate": 45,
    "base_happiness": 35,
    "height": "0.9 m",
    "weight": "4.4 kg",
    "genus": "Magical Pokémon",
    "color": "Purple",
    "habitat": "",
    "shape": "Ball"
  },
  "Honchkrow": {
    "national_dex_number": 430,
    "male_ratio": 4,
    "type1": "Dark",
    "type2": "Flying",
    "ability1": "Insomnia",
    "ability2": "Super Luck",
    "hidden_ability": "Moxie",
    "hp": 100,
    "attack": 125,
    "defense": 52,
    "special_attack": 105,
    "special_defense": 52,
    "speed": 71,
    "egg_group1": "Flying",
    "egg_group2": "None",
    "hatch_counter": 20,
    "steps_to_hatch": 5355,
    "effort": "2Att",
    "exp_group": "MediumSlow",
    "base_experience": 177,
    "capture_rate": 30,
    "base_happiness": 35,
    "height": "0.9 m",
    "weight": "27.3 kg",
    "genus": "Big Boss Pokémon",
    "color": "Black",
    "habitat": "",
    "shape": "Wings"
  },
  "Bonsly": {
    "national_dex_number": 438,
    "male_ratio": 4,
    "type1": "Rock",
    "type2": "Typeless",
    "ability1": "Sturdy",
    "ability2": "Rock Head",
    "hidden_ability": "Rattled",
    "hp": 50,
    "attack": 80,
    "defense": 95,
    "special_attack": 10,
    "special_defense": 45,
    "speed": 10,
    "egg_group1": "Undiscovered",
    "egg_group2": "None",
    "hatch_counter": 20,
    "steps_to_hatch": 5355,
    "effort": "1Def",
    "evolutions": [
      {
        "method": "KnownMove",
        "move": "Mimic",
        "species": "Sudowoodo"
      }
    ],
    "exp_group": "MediumFast",
    "base_experience": 58,
    "capture_rate": 255,
    "base_happiness": 70,
    "height": "0.5 m",
    "weight": "15.0 kg",
    "genus": "Bonsai Pokémon",
    "color": "Brown",
    "habitat": "",
    "shape": "Legs"
  },
  "Mime Jr.": {
    "national_dex_number": 439,
    "male_ratio": 4,
    "type1": "Psychic",
    "type2": "Fairy",
    "ability1": "Soundproof",
    "ability2": "Filter",
    "hidden_ability": "Technician",
    "hp": 20,
    "attack": 25,
    "defense": 45,
    "special_attack": 70,
    "special_defense": 90,
    "speed": 60,
    "egg_group1": "Undiscovered",
    "egg_group2": "None",
    "hatch_counter": 25,
    "steps_to_hatch": 6630,
    "effort": "1SpD",
    "evolutions": [
      {
        "method": "KnownMove",
        "move": "Mimic",
        "species": "Mr. Mime"
      }
    ],
    "exp_group": "MediumFast",
    "base_experience": 62,
    "capture_rate": 145,
    "base_happiness": 70,
    "height": "0.6 m",
    "weight": "13.0 kg",
    "genus": "Mime Pokémon",
    "color": "Pink",
    "habitat": "",
    "shape": "Humanoid"
  },
  "Happiny": {
    "national_dex_number": 440,
    "type1": "Normal",
    "type2": "Typeless",
    "ability1": "Natural Cure",
    "ability2": "Serene Grace",
    "hidden_ability": "Friend Guard",
    "hp": 100,
    "attack": 5,
    "defense": 5,
    "special_attack": 15,
    "special_defense": 65,
    "speed": 30,
    "egg_group1": "Undiscovered",
    "egg_group2": "None",
    "hatch_counter": 40,
    "steps_to_hatch": 10455,
    "effort": "1HP",
    "evolutions": [
      {
        "method": "HeldItem",
        "item": "Oval Stone",
        "species": "Chansey"
      }
    ],
    "exp_group": "Fast",
    "base_experience": 110,
    "capture_rate": 130,
    "base_happiness": 140,
    "height": "0.6 m",
    "weight": "24.4 kg",
    "genus": "Playhouse Pokémon",
    "color": "Pink",
    "habitat": "",
    "shape": "Humanoid"
  },
  "Munchlax": {
    "national_dex_number": 446,
    "male_ratio": 7,
    "type1": "Normal",
    "type2": "Typeless",
    "ability1": "Pickup",
    "ability2": "Thick Fat",
    "hidden_ability": "Gluttony",
    "hp": 135,
    "attack": 85,
    "defense": 40,
    "special_attack": 40,
    "special_defense": 85,
    "speed": 5,
    "egg_group1": "Undiscovered",
    "egg_group2": "None",
    "hatch_counter": 40,
    "steps_to_hatch": 10455,
    "effort": "1HP",
    "evolutions": [
      {
        "method": "Friendship",
        "species": "Snorlax"
      }
    ],
    "exp_group": "Slow",
    "base_experience": 78,
    "capture_rate": 50,
    "base_happiness": 70,
    "height": "0.6 m",
    "weight": "105.0 kg",
    "genus": "Big Eater Pokémon",
    "color": "Black",
    "habitat": "",
    "shape": "Humanoid"
  },
  "Mantyke": {
    "national_dex_number": 458,
    "male_ratio": 4,
    "type1": "Water",
    "type2": "Flying",
    "ability1": "Swift Swim",
    "ability2": "Water Absorb",
    "hidden_ability": "Water Veil",
    "hp": 45,
    "attack": 20,
    "defense": 50,
    "special_attack": 60,
    "special_defense": 120,
    "speed": 50,
    "egg_group1": "Undiscovered",
    "egg_group2": "None",
    "hatch_counter": 25,
    "steps_to_hatch": 6630,
    "effort": "1SpD",
    "evolutions": [
      {
        "method": "PartyContains",
        "party": "Remoraid",
        "species": "Mantine"
      }
    ],
    "exp_group": "Slow",
    "base_experience": 69,
    "capture_rate": 25,
    "base_happiness": 70,
    "height": "1.0 m",
    "weight": "65.0 kg",
    "genus": "Kite Pokémon",
    "color": "Blue",
    "habitat": "",
    "shape": "Wings"
  },
  "Weavile": {
    "national_dex_number": 461,
    "male_ratio": 4,
    "type1": "Dark",
    "type2": "Ice",
    "ability1": "Pressure",
    "ability2": "",
    "hidden_ability": "Pickpocket",
    "hp": 70,
    "attack": 120,
    "defense": 65,
    "special_attack": 45,
    "special_defense": 85,
    "speed": 125,
    "egg_group1": "Field",
    "egg_group2": "None",
    "hatch_counter": 20,
    "steps_to_hatch": 5355,
    "effort": "1Att, 1Spe",
    "exp_group": "MediumSlow",
    "base_experience": 179,
    "capture_rate": 45,
    "base_happiness": 35,
    "height": "1.1 m",
    "weight": "34.0 kg",
    "genus": "Sharp Claw Pokémon",
    "color": "Black",
    "habitat": "",
    "shape": "Upright"
  },
  "Magnezone": {
    "national_dex_number": 462,
    "male_ratio": -1,
    "type1": "Electric",
    "type2": "Steel",
    "ability1": "Magnet Pull",
    "ability2": "Sturdy",
    "hidden_ability": "Analytic",
    "hp": 70,
    "attack": 70,
    "defense": 115,
    "special_attack": 130,
    "special_defense": 90,
    "speed": 60,
    "egg_group1": "Mineral",
    "egg_group2": "None",
    "hatch_counter": 20,
    "steps_to_hatch": 5355,
    "effort": "3SpA",
    "exp_group": "MediumFast",
    "base_experience": 241,
    "capture_rate": 30,
    "base_happiness": 70,
    "height": "1.2 m",
    "weight": "180.0 kg",
    "genus": "Magnet Area Pokémon",
    "color": "Gray",
    "habitat": "",
    "shape": "Arms"
  },
  "Lickilicky": {
    "national_dex_number": 463,
    "male_ratio": 4,
    "type1": "Normal",
    "type2": "Typeless",
    "ability1": "Own Tempo",
    "ability2": "Oblivious",
    "hidden_ability": "Cloud Nine",
    "hp": 110,
    "attack": 85,
    "defense": 95,
    "special_attack": 80,
    "special_defense": 95,
    "speed": 50,
    "egg_group1": "Monster",
    "egg_group2": "None",
    "hatch_counter": 20,
    "steps_to_hatch": 5355,
    "effort": "3HP",
    "exp_group": "MediumFast",
    "base_experience": 180,
    "capture_rate": 30,
    "base_happiness": 70,
    "height": "1.7 m",
    "weight": "140.0 kg",
    "genus": "Licking Pokémon",
    "color": "Pink",
    "habitat": "",
    "shape": "Humanoid"
  },
  "Rhyperior": {
    "national_dex_number": 464,
    "male_ratio": 4,
    "type1": "Ground",
    "type2": "Rock",
    "ability1": "Lightning Rod",
    "ability2": "Solid Rock",
    "hidden_ability": "Reckless",
    "hp": 115,
    "attack": 140,
    "defense": 130,
    "special_attack": 55,
    "special_defense": 55,
    "speed": 40,
    "egg_group1": "Monster",
    "egg_group2": "Field",
    "hatch_counter": 20,
    "steps_to_hatch": 5355,
    "effort": "3Att",
    "exp_group": "Slow",
    "base_experience": 241,
    "capture_rate": 30,
    "base_happiness": 70,
    "height": "2.4 m",
    "weight": "282.8 kg",
    "genus": "Drill Pokémon",
    "color": "Gray",
    "habitat": "",
    "shape": "Upright"
  },
  "Tangrowth": {
    "national_dex_number": 465,
    "male_ratio": 4,
    "type1": "Grass",
    "type2": "Typeless",
    "ability1": "Chlorophyll",
    "ability2": "Leaf Guard",
    "hidden_ability": "Regenerator",
    "hp": 100,
    "attack": 100,
    "defense": 125,
    "special_attack": 110,
    "special_defense": 50,
    "speed": 50,
    "egg_group1": "Grass",
    "egg_group2": "None",
    "hatch_counter": 20,
    "steps_to_hatch": 5355,
    "effort": "2Def",
    "exp_group": "MediumFast",
    "base_experience": 187,
    "capture_rate": 30,
    "base_happiness": 70,
    "height": "2.0 m",
    "weight": "128.6 kg",
    "genus": "Vine Pokémon",
    "color": "Blue",
    "habitat": "",
    "shape": "Humanoid"
  },
  "Electivire": {
    "national_dex_number": 466,
    "male_ratio": 6,
    "type1": "Electric",
    "type2": "Typeless",
    "ability1": "Motor Drive",
    "ability2": "",
    "hidden_ability": "Vital Spirit",
    "hp": 75,
    "attack": 123,
    "defense": 67,
    "special_attack": 95,
    "special_defense": 85,
    "speed": 95,
    "egg_group1": "HumanLike",
    "egg_group2": "None",
    "hatch_counter": 25,
    "steps_to_hatch": 6630,
    "effort": "3Att",
    "exp_group": "MediumFast",
    "base_experience": 243,
    "capture_rate": 30,
    "base_happiness": 70,
    "height": "1.8 m",
    "weight": "138.6 kg",
    "genus": "Thunderbolt Pokémon",
    "color": "Yellow",
    "habitat": "",
    "shape": "Upright"
  },
  "Magmortar": {
    "national_dex_number": 467,
    "male_ratio": 6,
    "type1": "Fire",
    "type2": "Typeless",
    "ability1": "Flame Body",
    "ability2": "",
    "hidden_ability": "Vital Spirit",
    "hp": 75,
    "attack": 95,
    "defense": 67,
    "special_attack": 125,
    "special_defense": 95,
    "speed": 83,
    "egg_group1": "HumanLike",
    "egg_group2": "None",
    "hatch_counter": 25,
    "steps_to_hatch": 6630,
    "effort": "3SpA",
    "exp_group": "MediumFast",
    "base_experience": 243,
    "capture_rate": 30,
    "base_happiness": 70,
    "height": "1.6 m",
    "weight": "68.0 kg",
    "genus": "Blast Pokémon",
    "color": "Red",
    "habitat": "",
    "shape": "Upright"
  },
  "Togekiss": {
    "national_dex_number": 468,
    "male_ratio": 7,
    "type1": "Fairy",
    "type2": "Flying",
    "ability1": "Hustle",
    "ability2": "Serene Grace",
    "hidden_ability": "Super Luck",
    "hp": 85,
    "attack": 50,
    "defense": 95,
    "special_attack": 120,
    "special_defense": 115,
    "speed": 80,
    "egg_group1": "Flying",
    "egg_group2": "Fairy",
    "hatch_counter": 10,
    "steps_to_hatch": 2805,
    "effort": "2SpA, 1SpD",
    "exp_group": "Fast",
    "base_experience": 245,
    "capture_rate": 30,
    "base_happiness": 70,
    "height": "1.5 m",
    "weight": "38.0 kg",
    "genus": "Jubilee Pokémon",
    "color": "White",
    "habitat": "",
    "shape": "Wings"
  },
  "Yanmega": {
    "national_dex_number": 469,
    "male_ratio": 4,
    "type1": "Bug",
    "type2": "Flying",
    "ability1": "Speed Boost",
    "ability2": "Tinted Lens",
    "hidden_ability": "Frisk",
    "hp": 86,
    "attack": 76,
    "defense": 86,
    "special_attack": 116,
    "special_defense": 56,
    "speed": 95,
    "egg_group1": "Bug",
    "egg_group2": "None",
    "hatch_counter": 20,
    "steps_to_hatch": 5355,
    "effort": "2Att",
    "exp_group": "MediumFast",
    "base_experience": 180,
    "capture_rate": 30,
    "base_happiness": 70,
    "height": "1.9 m",
    "weight": "51.5 kg",
    "genus": "Ogre Darner Pokémon",
    "color": "Green",
    "habitat": "",
    "shape": "Bug wings"
  },
  "Leafeon": {
    "national_dex_number": 470,
    "male_ratio": 7,
    "type1": "Grass",
    "type2": "Typeless",
    "ability1": "Leaf Guard",
    "ability2": "",
    "hidden_ability": "Chlorophyll",
    "hp": 65,
    "attack": 110,
    "defense": 130,
    "special_attack": 60,
    "special_defense": 65,
    "speed": 95,
    "egg_group1": "Field",
    "egg_group2": "None",
    "hatch_counter": 35,
    "steps_to_hatch": 9180,
    "effort": "2Def",
    "exp_group": "MediumFast",
    "base_experience": 184,
    "capture_rate": 45,
    "base_happiness": 35,
    "height": "1.0 m",
    "weight": "25.5 kg",
    "genus": "Verdant Pokémon",
    "color": "Green",
    "habitat": "",
    "shape": "Quadruped"
  },
  "Glaceon": {
    "national_dex_number": 471,
    "male_ratio": 7,
    "type1": "Ice",
    "type2": "Typeless",
    "ability1": "Snow Cloak",
    "ability2": "",
    "hidden_ability": "Ice Body",
    "hp": 65,
    "attack": 60,
    "defense": 110,
    "special_attack": 130,
    "special_defense": 95,
    "speed": 65,
    "egg_group1": "Field",
    "egg_group2": "None",
    "hatch_counter": 35,
    "steps_to_hatch": 9180,
    "effort": "2SpA",
    "exp_group": "MediumFast",
    "base_experience": 184,
    "capture_rate": 45,
    "base_happiness": 35,
    "height": "0.8 m",
    "weight": "25.9 kg",
    "genus": "Fresh Snow Pokémon",
    "color": "Blue",
    "habitat": "",
    "shape": "Quadruped"
  },
  "Gliscor": {
    "national_dex_number": 472,
    "male_ratio": 4,
    "type1": "Ground",
    "type2": "Flying",
    "ability1": "Hyper Cutter",
    "ability2": "Sand Veil",
    "hidden_ability": "Poison Heal",
    "hp": 75,
    "attack": 95,
    "defense": 125,
    "special_attack": 45,
    "special_defense": 75,
    "speed": 95,
    "egg_group1": "Bug",
    "egg_group2": "None",
    "hatch_counter": 20,
    "steps_to_hatch": 5355,
    "effort": "2Def",
    "exp_group": "MediumSlow",
    "base_experience": 179,
    "capture_rate": 30,
    "base_happiness": 70,
    "height": "2.0 m",
    "weight": "42.5 kg",
    "genus": "Fang Scorpion Pokémon",
    "color": "Purple",
    "habitat": "",
    "shape": "Wings"
  },
  "Mamoswine": {
    "national_dex_number": 473,
    "male_ratio": 4,
    "type1": "Ice",
    "type2": "Ground",
    "ability1": "Oblivious",
    "ability2": "Snow Cloak",
    "hidden_ability": "Thick Fat",
    "hp": 110,
    "attack": 130,
    "defense": 80,
    "special_attack": 70,
    "special_defense": 60,
    "speed": 80,
    "egg_group1": "Field",
    "egg_group2": "None",
    "hatch_counter": 20,
    "steps_to_hatch": 5355,
    "effort": "3Att",
    "exp_group": "Slow",
    "base_experience": 239,
    "capture_rate": 50,
    "base_happiness": 70,
    "height": "2.5 m",
    "weight": "291.0 kg",
    "genus": "Twin Tusk Pokémon",
    "color": "Brown",
    "habitat": "",
    "shape": "Quadruped"
  },
  "Porygon-Z": {
    "national_dex_number": 474,
    "male_ratio": -1,
    "type1": "Normal",
    "type2": "Typeless",
    "ability1": "Adaptability",
    "ability2": "Download",
    "hidden_ability": "Analytic",
    "hp": 85,
    "attack": 80,
    "defense": 70,
    "special_attack": 135,
    "special_defense": 75,
    "speed": 90,
    "egg_group1": "Mineral",
    "egg_group2": "None",
    "hatch_counter": 20,
    "steps_to_hatch": 5355,
    "effort": "3SpA",
    "exp_group": "MediumFast",
    "base_experience": 241,
    "capture_rate": 30,
    "base_happiness": 70,
    "height": "0.9 m",
    "weight": "34.0 kg",
    "genus": "Virtual Pokémon",
    "color": "Red",
    "habitat": "",
    "shape": "Arms"
  }
}